newmtl Solid
Ka  1.0 1.0 1.0
Kd  1.0 1.0 1.0
Ks  0.0 0.0 0.0
d  1.0
Ns  0.0
illum 0

newmtl vase
Ka  1.0 1.0 1.0
Kd  1.0 1.0 1.0
Ks  0.0 0.0 0.0
d  1.0
Ns  0.0
illum 0
map_Kd vase.jpg

newmtl vase1
Ka  1.0 1.0 1.0
Kd  1.0 1.0 1.0
Ks  0.0 0.0 0.0
d  1.0
Ns  0.0
illum 0
map_Kd vase1.jpg

newmtl vase2
Ka  1.0 1.0 1.0
Kd  1.0 1.0 1.0
Ks  0.0 0.0 0.0
d  1.0
Ns  0.0
illum 0
map_Kd vase2.jpg

newmtl vase3
Ka  1.0 1.0 1.0
Kd  1.0 1.0 1.0
Ks  0.0 0.0 0.0
d  1.0
Ns  0.0
illum 0
map_Kd vase3.jpg

