^C:\USERS\IRINA\DOWNLOADS\PROIECTG3D\ARTGALLERY\ARTGALLERY\RELEASE\ARTGALLERY.OBJ|C:\USERS\IRINA\DOWNLOADS\PROIECTG3D\ARTGALLERY\ARTGALLERY\RELEASE\BACKGROUND.OBJ|C:\USERS\IRINA\DOWNLOADS\PROIECTG3D\ARTGALLERY\ARTGALLERY\RELEASE\CAMERA2.OBJ|C:\USERS\IRINA\DOWNLOADS\PROIECTG3D\ARTGALLERY\ARTGALLERY\RELEASE\GLASSSUPPORT.OBJ|C:\USERS\IRINA\DOWNLOADS\PROIECTG3D\ARTGALLERY\ARTGALLERY\RELEASE\MESH.OBJ|C:\USERS\IRINA\DOWNLOADS\PROIECTG3D\ARTGALLERY\ARTGALLERY\RELEASE\MODEL.OBJ|C:\USERS\IRINA\DOWNLOADS\PROIECTG3D\ARTGALLERY\ARTGALLERY\RELEASE\OPENGLUTILS.OBJ|C:\USERS\IRINA\DOWNLOADS\PROIECTG3D\ARTGALLERY\ARTGALLERY\RELEASE\SCENE.OBJ|C:\USERS\IRINA\DOWNLOADS\PROIECTG3D\ARTGALLERY\ARTGALLERY\RELEASE\SHADERLOADER.OBJ
C:\PROGRAM FILES (X86)\WINDOWS KITS\10\LIB\10.0.16299.0\UM\X86\OPENGL32.LIB
C:\USERS\IRINA\DOWNLOADS\PROIECTG3D\EXTERNAL\ASSIMP\LIB\X86\ASSIMP.LIB
C:\USERS\IRINA\DOWNLOADS\PROIECTG3D\EXTERNAL\GLEW-2.1.0-WIN32\GLEW-2.1.0\LIB\RELEASE\WIN32\GLEW32.LIB
C:\USERS\IRINA\DOWNLOADS\PROIECTG3D\EXTERNAL\GLFW-3.2.1.BIN.WIN32\LIB-VC2015\GLFW3.LIB
C:\PROGRAM FILES (X86)\WINDOWS KITS\10\LIB\10.0.16299.0\UM\X86\KERNEL32.LIB
C:\PROGRAM FILES (X86)\WINDOWS KITS\10\LIB\10.0.16299.0\UM\X86\USER32.LIB
C:\PROGRAM FILES (X86)\WINDOWS KITS\10\LIB\10.0.16299.0\UM\X86\GDI32.LIB
C:\PROGRAM FILES (X86)\WINDOWS KITS\10\LIB\10.0.16299.0\UM\X86\WINSPOOL.LIB
C:\PROGRAM FILES (X86)\WINDOWS KITS\10\LIB\10.0.16299.0\UM\X86\COMDLG32.LIB
C:\PROGRAM FILES (X86)\WINDOWS KITS\10\LIB\10.0.16299.0\UM\X86\ADVAPI32.LIB
C:\PROGRAM FILES (X86)\WINDOWS KITS\10\LIB\10.0.16299.0\UM\X86\SHELL32.LIB
C:\PROGRAM FILES (X86)\WINDOWS KITS\10\LIB\10.0.16299.0\UM\X86\OLE32.LIB
C:\PROGRAM FILES (X86)\WINDOWS KITS\10\LIB\10.0.16299.0\UM\X86\OLEAUT32.LIB
C:\PROGRAM FILES (X86)\WINDOWS KITS\10\LIB\10.0.16299.0\UM\X86\UUID.LIB
C:\PROGRAM FILES (X86)\WINDOWS KITS\10\LIB\10.0.16299.0\UM\X86\ODBC32.LIB
C:\PROGRAM FILES (X86)\WINDOWS KITS\10\LIB\10.0.16299.0\UM\X86\ODBCCP32.LIB
C:\USERS\IRINA\DOWNLOADS\PROIECTG3D\ARTGALLERY\ARTGALLERY\RELEASE\ARTGALLERY.OBJ
C:\USERS\IRINA\DOWNLOADS\PROIECTG3D\ARTGALLERY\ARTGALLERY\RELEASE\BACKGROUND.OBJ
C:\USERS\IRINA\DOWNLOADS\PROIECTG3D\ARTGALLERY\ARTGALLERY\RELEASE\CAMERA2.OBJ
C:\USERS\IRINA\DOWNLOADS\PROIECTG3D\ARTGALLERY\ARTGALLERY\RELEASE\GLASSSUPPORT.OBJ
C:\USERS\IRINA\DOWNLOADS\PROIECTG3D\ARTGALLERY\ARTGALLERY\RELEASE\MESH.OBJ
C:\USERS\IRINA\DOWNLOADS\PROIECTG3D\ARTGALLERY\ARTGALLERY\RELEASE\MODEL.OBJ
C:\USERS\IRINA\DOWNLOADS\PROIECTG3D\ARTGALLERY\ARTGALLERY\RELEASE\OPENGLUTILS.OBJ
C:\USERS\IRINA\DOWNLOADS\PROIECTG3D\ARTGALLERY\ARTGALLERY\RELEASE\SCENE.OBJ
C:\USERS\IRINA\DOWNLOADS\PROIECTG3D\ARTGALLERY\ARTGALLERY\RELEASE\SHADERLOADER.OBJ
C:\WINDOWS\GLOBALIZATION\SORTING\SORTDEFAULT.NLS
C:\PROGRAM FILES (X86)\MICROSOFT VISUAL STUDIO\2017\COMMUNITY\VC\TOOLS\MSVC\14.13.26128\BIN\HOSTX86\X86\C2.DLL
C:\PROGRAM FILES (X86)\MICROSOFT VISUAL STUDIO\2017\COMMUNITY\VC\TOOLS\MSVC\14.13.26128\LIB\X86\MSVCPRT.LIB
C:\PROGRAM FILES (X86)\MICROSOFT VISUAL STUDIO\2017\COMMUNITY\VC\TOOLS\MSVC\14.13.26128\LIB\X86\MSVCRT.LIB
C:\PROGRAM FILES (X86)\MICROSOFT VISUAL STUDIO\2017\COMMUNITY\VC\TOOLS\MSVC\14.13.26128\LIB\X86\OLDNAMES.LIB
C:\PROGRAM FILES (X86)\MICROSOFT VISUAL STUDIO\2017\COMMUNITY\VC\TOOLS\MSVC\14.13.26128\LIB\X86\VCRUNTIME.LIB
C:\PROGRAM FILES (X86)\WINDOWS KITS\10\LIB\10.0.16299.0\UCRT\X86\UCRT.LIB
C:\PROGRAM FILES (X86)\MICROSOFT VISUAL STUDIO\2017\COMMUNITY\VC\TOOLS\MSVC\14.13.26128\BIN\HOSTX86\X86\1033\LINKUI.DLL
C:\PROGRAM FILES (X86)\WINDOWS KITS\10\BIN\10.0.16299.0\X86\RC.EXE
C:\PROGRAM FILES (X86)\MICROSOFT VISUAL STUDIO\2017\COMMUNITY\VC\TOOLS\MSVC\14.13.26128\BIN\HOSTX86\X86\CVTRES.EXE
C:\PROGRAM FILES (X86)\MICROSOFT VISUAL STUDIO\2017\COMMUNITY\VC\TOOLS\MSVC\14.13.26128\BIN\HOSTX86\X86\MSPDBSRV.EXE
C:\WINDOWS\SYSTEM32\TZRES.DLL
C:\PROGRAM FILES (X86)\MICROSOFT VISUAL STUDIO\2017\COMMUNITY\VC\TOOLS\MSVC\14.13.26128\BIN\HOSTX86\X86\VCTIP.EXE
