^D:\PROGRAMMING\OPENGL\PROIECTG3D\ARTGALLERY\ARTGALLERY\RELEASE\ARTGALLERY.OBJ|D:\PROGRAMMING\OPENGL\PROIECTG3D\ARTGALLERY\ARTGALLERY\RELEASE\BACKGROUND.OBJ|D:\PROGRAMMING\OPENGL\PROIECTG3D\ARTGALLERY\ARTGALLERY\RELEASE\CAMERA2.OBJ|D:\PROGRAMMING\OPENGL\PROIECTG3D\ARTGALLERY\ARTGALLERY\RELEASE\GLASSSUPPORT.OBJ|D:\PROGRAMMING\OPENGL\PROIECTG3D\ARTGALLERY\ARTGALLERY\RELEASE\MESH.OBJ|D:\PROGRAMMING\OPENGL\PROIECTG3D\ARTGALLERY\ARTGALLERY\RELEASE\MODEL.OBJ|D:\PROGRAMMING\OPENGL\PROIECTG3D\ARTGALLERY\ARTGALLERY\RELEASE\OPENGLUTILS.OBJ|D:\PROGRAMMING\OPENGL\PROIECTG3D\ARTGALLERY\ARTGALLERY\RELEASE\SCENE.OBJ|D:\PROGRAMMING\OPENGL\PROIECTG3D\ARTGALLERY\ARTGALLERY\RELEASE\SHADERLOADER.OBJ
/OUT:"D:\PROGRAMMING\OPENGL\PROIECTG3D\ARTGALLERY\RELEASE\ARTGALLERY.EXE" /NOLOGO /LIBPATH:..\..\EXTERNAL\ASSIMP\LIB\X86 /LIBPATH:"..\..\EXTERNAL\GLEW-2.1.0-WIN32\GLEW-2.1.0\LIB\RELEASE\WIN32" /LIBPATH:"..\..\EXTERNAL\GLFW-3.2.1.BIN.WIN32\LIB-VC2015" OPENGL32.LIB ASSIMP.LIB GLEW32.LIB GLFW3.LIB KERNEL32.LIB USER32.LIB GDI32.LIB WINSPOOL.LIB COMDLG32.LIB ADVAPI32.LIB SHELL32.LIB OLE32.LIB OLEAUT32.LIB UUID.LIB ODBC32.LIB ODBCCP32.LIB KERNEL32.LIB USER32.LIB GDI32.LIB WINSPOOL.LIB COMDLG32.LIB ADVAPI32.LIB SHELL32.LIB OLE32.LIB OLEAUT32.LIB UUID.LIB ODBC32.LIB ODBCCP32.LIB /MANIFEST /MANIFESTUAC:"level='asInvoker' uiAccess='false'" /manifest:embed /DEBUG:FULL /PDB:"D:\PROGRAMMING\OPENGL\PROIECTG3D\ARTGALLERY\RELEASE\ARTGALLERY.PDB" /OPT:REF /OPT:ICF /LTCG:incremental /TLBID:1 /DYNAMICBASE /NXCOMPAT /IMPLIB:"D:\PROGRAMMING\OPENGL\PROIECTG3D\ARTGALLERY\RELEASE\ARTGALLERY.LIB" /MACHINE:X86 /SAFESEH RELEASE\ARTGALLERY.OBJRELEASE\BACKGROUND.OBJRELEASE\CAMERA2.OBJRELEASE\GLASSSUPPORT.OBJRELEASE\MESH.OBJRELEASE\MODEL.OBJRELEASE\OPENGLUTILS.OBJRELEASE\SCENE.OBJRELEASE\SHADERLOADER.OBJ
^C:\USERS\IRINA\DOWNLOADS\PROIECTG3D\ARTGALLERY\ARTGALLERY\RELEASE\ARTGALLERY.OBJ|C:\USERS\IRINA\DOWNLOADS\PROIECTG3D\ARTGALLERY\ARTGALLERY\RELEASE\BACKGROUND.OBJ|C:\USERS\IRINA\DOWNLOADS\PROIECTG3D\ARTGALLERY\ARTGALLERY\RELEASE\CAMERA2.OBJ|C:\USERS\IRINA\DOWNLOADS\PROIECTG3D\ARTGALLERY\ARTGALLERY\RELEASE\GLASSSUPPORT.OBJ|C:\USERS\IRINA\DOWNLOADS\PROIECTG3D\ARTGALLERY\ARTGALLERY\RELEASE\MESH.OBJ|C:\USERS\IRINA\DOWNLOADS\PROIECTG3D\ARTGALLERY\ARTGALLERY\RELEASE\MODEL.OBJ|C:\USERS\IRINA\DOWNLOADS\PROIECTG3D\ARTGALLERY\ARTGALLERY\RELEASE\OPENGLUTILS.OBJ|C:\USERS\IRINA\DOWNLOADS\PROIECTG3D\ARTGALLERY\ARTGALLERY\RELEASE\SCENE.OBJ|C:\USERS\IRINA\DOWNLOADS\PROIECTG3D\ARTGALLERY\ARTGALLERY\RELEASE\SHADERLOADER.OBJ
/OUT:"C:\USERS\IRINA\DOWNLOADS\PROIECTG3D\ARTGALLERY\RELEASE\ARTGALLERY.EXE" /NOLOGO /LIBPATH:..\..\EXTERNAL\ASSIMP\LIB\X86 /LIBPATH:"..\..\EXTERNAL\GLEW-2.1.0-WIN32\GLEW-2.1.0\LIB\RELEASE\WIN32" /LIBPATH:"..\..\EXTERNAL\GLFW-3.2.1.BIN.WIN32\LIB-VC2015" OPENGL32.LIB ASSIMP.LIB GLEW32.LIB GLFW3.LIB KERNEL32.LIB USER32.LIB GDI32.LIB WINSPOOL.LIB COMDLG32.LIB ADVAPI32.LIB SHELL32.LIB OLE32.LIB OLEAUT32.LIB UUID.LIB ODBC32.LIB ODBCCP32.LIB KERNEL32.LIB USER32.LIB GDI32.LIB WINSPOOL.LIB COMDLG32.LIB ADVAPI32.LIB SHELL32.LIB OLE32.LIB OLEAUT32.LIB UUID.LIB ODBC32.LIB ODBCCP32.LIB /MANIFEST /MANIFESTUAC:"level='asInvoker' uiAccess='false'" /manifest:embed /DEBUG:FULL /PDB:"C:\USERS\IRINA\DOWNLOADS\PROIECTG3D\ARTGALLERY\RELEASE\ARTGALLERY.PDB" /OPT:REF /OPT:ICF /LTCG:incremental /TLBID:1 /DYNAMICBASE /NXCOMPAT /IMPLIB:"C:\USERS\IRINA\DOWNLOADS\PROIECTG3D\ARTGALLERY\RELEASE\ARTGALLERY.LIB" /MACHINE:X86 /SAFESEH RELEASE\ARTGALLERY.OBJRELEASE\BACKGROUND.OBJRELEASE\CAMERA2.OBJRELEASE\GLASSSUPPORT.OBJRELEASE\MESH.OBJRELEASE\MODEL.OBJRELEASE\OPENGLUTILS.OBJRELEASE\SCENE.OBJRELEASE\SHADERLOADER.OBJ
